ðTREUIL MEGEI 0.1 Dev

Hoist	TREUIL MEGEI 0.1 Dev
HOIST Commands:
--------------------------------------------
CDE_MOVE_UP		U
CDE_CATCH_JACK		C
CDE_MOVE_DOWN		D
CDE_FREE_JACK		F
CDE_MISTING		G (mistinG) [0,1]
CDE_INVERSE_VALVE	I param:EPI=0,EPO=1,EVA=2,PS=3,RRO=4,AMO=5,BMO=6,CMO=7
CDE_THIS_INFO		H (tHis)
CDE_US_BOTTOM		K
CDE_DISPLAY_GAUGE	L
CDE_MICROFIBRE		Moteur [0,1]
CDE_GET_POS_INDEX	N (iNdex)
CDE_DISPLAY_PILE	P
CDE_DISPLAY_SPEED	Q (Quick)
CDE_RACCROCHE		R
CDE_STOP_BRAKE		S
CDE_DECLENCHEMENT	T (Trig)
CDE_DISPLAY_SPEED	Q
CDE_WET_JACK		W
CDE_ERASE_ERROR		X
CDE_READY		Y (readY)
CDE_RAZ			Z [''=hoist,R=Robot,J=robot and jacks
CDE_INC_SPEED		+
CDE_DEC_SPEED		-
CDE_DISPLAY_TRAVERSE	=
CDE_MODE_A_VIDE		0
CDE_INVALID		![G,R]
CDE_PING		|
CDE_ERASE_PILE		/
CDE_SET_PARAM		* exemple : *_200 : seuil haut US=200
			CDE_US_SEUIL_HAUT	^[max 1024]
			CDE_US_SEUIL_BAS	_ [min 0]
			CDE_GO_ABSOLUTE		G [mm]
			CDE_GO_RELATIVE		R [mm]
			PARAM_JAUGE_SEUIL_HAUT	L
			PARAM_JAUGE_SEUIL_BAS	l
			PARAM_JAUGE_MULTIPLIER	M [min 0]
			CDE_SET_OFFSET
--------------------------------------------
Usage : Command
?			Display this help
Radio Delay:8
new target Speed+ :255
MODE ROBOT
Init done. Waiting for orders...
Vitesse(m/min)=0.00
Autocatch A a Index=0	0.00mm
Autocatch B a Index=0	0.00mm
Try Connecting ->
STOPIndex=0	0.00mm
Try Connecting ->
RSY0
Try Connecting ->
RSY0
Communication established from me
FSC1
FSC2
K
FSK3
US Bottom=0
a-2
K
FSK4
US Bottom=0
RSK4
RSK4
RSK4
RSK4
US Bottom=0
a-3
K
FSK5
US Bottom=0
RSK5
RSK5
RSK5
RSK5
RSK5
RSK5
RSK5
RSK5
RSK5
RSK5
US Bottom=0
RSK5
RSK5
US Bottom=0
RSK5
RSK5
RSK5
RSK5
RSK5
US Bottom=0
RSK5
RSK5
US Bottom=0
RSK5
RSK5
RSK5
RSK5
RSK5
RSK5
RSK5
RSK5
RSK5
US Bottom=0
RSK5
RSK5
RSK5
US Bottom=0
RSK5
RSK5
US Bottom=0
RSK5
RSK5
US Bottom=0
RSK5
RSK5
RSK5
US Bottom=0
RSK5
RSK5
US Bottom=0
RSK5
RSK5
RSK5
RSK5
RSK5
RSK5
RSK5
RSK5
RSK5
US Bottom=0
RSK5
RSK5
RSK5
US Bottom=0
RSK5
RSK5
US Bottom=0
RSK5
RSK5
US Bottom=0
RSK5
RSK5
RSK5
US Bottom=0
RSK5
RSK5
US Bottom=0
RSK5
RSK5
US Bottom=0
RSK5
RSK5
RSK5
RSK5
US Bottom=0
RSK5
RSK5
US Bottom=0
RSK5
RSK5
US Bottom=0
RSK5
RSK5
US Bottom=0
RSK5
RSK5
RSK5
US Bottom=0
RSK5
RSK5
US Bottom=0
RSK5
RSK5
US Bottom=0
RSK5
RSK5
RSK5
US Bottom=0
RSK5
RSK5
US Bottom=0
RSK5
RSK5
US Bottom=0
RSK5
RSK5
RSK5
RSK5
US Bottom=0
RSK5
RSK5
US Bottom=0
RSK5
RSK5
US Bottom=0
RSK5
RSK5
RSK5
RSK5
RSK5
RSK5
RSK5
RSK5
RSK5
US Bottom=0
RSK5
RSK5
RSK5
US Bottom=0
RSK5
RSK5
US Bottom=0
RSK5
RSK5
RSK5
RSK5
RSK5
RSK5
RSK5
RSK5
RSK5
US Bottom=0
RSK5
RSK5
RSK5
US Bottom=0
RSK5
RSK5
US Bottom=0
RSK5
RSK5
RSK5
RSK5
RSK5
RSK5
RSK5
RSK5
RSK5
US Bottom=0
RSK5
RSK5
RSK5
US Bottom=0
RSK5
RSK5
US Bottom=0
RSK5
RSK5
US Bottom=0
RSK5
RSK5
RSK5
US Bottom=0
RSK5
RSK5
US Bottom=0
RSK5
RSK5
RSK5
RSK5
RSK5
RSK5
RSK5
RSK5
RSK5
US Bottom=0
RSK5
RSK5
RSK5
US Bottom=0
RSK5
RSK5
US Bottom=0
RSK5
RSK5
US Bottom=0
RSK5
RSK5
RSK5
RSK5
RSK5
RSK5
RSK5
RSK5
RSK5
RSK5
US Bottom=0
RSK5
RSK5
RSK5
US Bottom=0
RSK5
RSK5
US Bottom=0
RSK5
RSK5
RSK5
RSK5
RSK5
RSK5
RSK5
RSK5
RSK5
US Bottom=0
RSK5
RSK5
RSK5
US Bottom=0
RSK5
RSK5
US Bottom=0
RSK5
RSK5
US Bottom=0
RSK5
RSK5
RSK5
RSK5
US Bottom=0
RSK5
RSK5
US Bottom=0
RSK5
RSK5
US Bottom=0
RSK5
RSK5
RSK5
RSK5
US Bottom=0
RSK5
RSK5
US Bottom=0
RSK5
RSK5
US Bottom=0
RSK5
RSK5
US Bottom=0
RSK5
RSK5
RSK5
US Bottom=0
RSK5
RSK5
US Bottom=0
RSK5
RSK5
RSK5
RSK5
RSK5
RSK5
RSK5
RSK5
RSK5
US Bottom=0
RSK5
RSK5
RSK5
US Bottom=0
RSK5
RSK5
US Bottom=0
RSK5
RSK5
US Bottom=0
RSK5
RSK5
RSK5
RSK5
US Bottom=0
RSK5
RSK5
US Bottom=0
RSK5
RSK5
US Bottom=0
RSK5
RSK5
RSK5
RSK5
RSK5
RSK5
RSK5
RSK5
RSK5
US Bottom=0
RSK5
RSK5
RSK5
US Bottom=0
RSK5
RSK5
US Bottom=0
RSK5
RSK5
US Bottom=0
RSK5
RSK5
RSK5
RSK5
US Bottom=0
RSK5
RSK5
US Bottom=0
RSK5
RSK5
US Bottom=0
RSK5
RSK5
US Bottom=0
RSK5
RSK5
RSK5
US Bottom=0
RSK5
RSK5
US Bottom=0
RSK5
RSK5
US Bottom=0
RSK5
RSK5
RSK5
US Bottom=0
RSK5
RSK5
US Bottom=0
RSK5
RSK5
US Bottom=0
RSK5
RSK5
RSK5
US Bottom=0
RSK5
RSK5
US Bottom=0
RSK5
RSK5
RSK5
RSK5
US Bottom=0
RSK5
RSK5
US Bottom=0
RSK5
RSK5
US Bottom=0
RSK5
RSK5
US Bottom=0
RSK5
RSK5
RSK5
RSK5
US Bottom=0
RSK5
RSK5
US Bottom=0
RSK5
RSK5
US Bottom=0
RSK5
RSK5
RSK5
RSK5
US Bottom=0
RSK5
RSK5
US Bottom=0
RSK5
RSK5
US Bottom=0
RSK5
RSK5
US Bottom=0
RSK5
RSK5
RSK5
US Bottom=0
RSK5
RSK5
US Bottom=0
RSK5
RSK5
US Bottom=0
RSK5
RSK5
RSK5
US Bottom=0
RSK5
RSK5
US Bottom=0
RSK5
RSK5
RSK5
RSK5
RSK5
RSK5
RSK5
RSK5
RSK5
RSK5
RSK5
RSK5
RSK5
RSK5
RSK5
RSK5
US Bottom=0
RSK5
RSK5
RSK5
US Bottom=0
RSK5
RSK5
US Bottom=0
RSK5
RSK5
US Bottom=0
RSK5
RSK5
RSK5
US Bottom=0
RSK5
RSK5
US Bottom=0
RSK5
RSK5
RSK5
US Bottom=0
RSK5
RSK5
RSK5
RSK5
US Bottom=0
RSK5
RSK5
US Bottom=0
RSK5
RSK5
RSK5
US Bottom=0
RSK5
RSK5
US Bottom=0
RSK5
RSK5
US Bottom=0
RSK5
RSK5
RSK5
US Bottom=0
RSK5
RSK5
US Bottom=0
RSK5
RSK5
RSK5
RSK5
RSK5
RSK5
RSK5
RSK5
RSK5
US Bottom=0
RSK5
RSK5
RSK5
RSK5
US Bottom=0
RSK5
RSK5
US Bottom=0
RSK5
RSK5
US Bottom=0
RSK5
RSK5
RSK5
RSK5
RSK5
RSK5
RSK5
RSK5
RSK5
RSK5
RSK5
RSK5
RSK5
RSK5
RSK5
RSK5
US Bottom=0
RSK5
RSK5
RSK5
US Bottom=0
RSK5
RSK5
US Bottom=0
RSK5
RSK5
US Bottom=0
RSK5
RSK5
RSK5
US Bottom=0
RSK5
RSK5
US Bottom=0
RSK5
RSK5
RSK5
RSK5
RSK5
RSK5
RSK5
RSK5
RSK5
US Bottom=0
RSK5
RSK5
RSK5
US Bottom=0
RSK5
RSK5
US Bottom=0
RSK5
RSK5
US Bottom=0
RSK5
RSK5
RSK5
RSK5
US Bottom=0
RSK5
RSK5
US Bottom=0
RSK5
RSK5
US Bottom=0
RSK5
RSK5
US Bottom=0
RSK5
RSK5
RSK5
US Bottom=0
RSK5
RSK5
US Bottom=0
RSK5
RSK5
RSK5
RSK5
RSK5
RSK5
RSK5
RSK5
RSK5
US Bottom=0
RSK5
RSK5
RSK5
US Bottom=0
RSK5
RSK5
US Bottom=0
RSK5
RSK5
RSK5
RSK5
RSK5
RSK5
RSK5
RSK5
RSK5
US Bottom=0
RSK5
RSK5
RSK5
US Bottom=0
RSK5
RSK5
US Bottom=0
RSK5
RSK5
US Bottom=0
RSK5
RSK5
RSK5
RSK5
US Bottom=0
RSK5
RSK5
US Bottom=0
RSK5
RSK5
US Bottom=0
RSK5
RSK5
RSK5
RSK5
RSK5
RSK5
RSK5
RSK5
RSK5
US Bottom=0
RSK5
RSK5
RSK5
US Bottom=0
RSK5
RSK5
US Bottom=0
RSK5
RSK5
US Bottom=0
RSK5
RSK5
RSK5
US Bottom=0
RSK5
RSK5
US Bottom=0
RSK5
RSK5
RSK5
RSK5
US Bottom=0
RSK5
RSK5
US Bottom=0
RSK5
RSK5
US Bottom=0
RSK5
RSK5
US Bottom=0
RSK5
RSK5
RSK5
RSK5
US Bottom=0
RSK5
RSK5
US Bottom=0
RSK5
RSK5
US Bottom=0
RSK5
RSK5
RSK5
RSK5
RSK5
RSK5
RSK5
RSK5
RSK5
US Bottom=0
RSK5
RSK5
RSK5
US Bottom=0
RSK5
RSK5
US Bottom=0
RSK5
RSK5
US Bottom=0
RSK5
RSK5
RSK5
US Bottom=0
RSK5
RSK5
US Bottom=0
RSK5
RSK5
RSK5
RSK5
RSK5
RSK5
RSK5
RSK5
RSK5
RSK5
RSK5
RSK5
RSK5
RSK5
RSK5
RSK5
US Bottom=0
RSK5
RSK5
RSK5
US Bottom=0
RSK5
RSK5
US Bottom=0
RSK5
RSK5
US Bottom=0
RSK5
RSK5
RSK5
US Bottom=0
RSK5
RSK5
US Bottom=0
RSK5
RSK5
RSK5
RSK5
RSK5
RSK5
RSK5
RSK5
RSK5
US Bottom=0
RSK5
RSK5
RSK5
US Bottom=0
RSK5
RSK5
US Bottom=0
RSK5
RSK5
US Bottom=0
RSK5
RSK5
RSK5
US Bottom=0
RSK5
RSK5
US Bottom=0
RSK5
RSK5
US Bottom=0
RSK5
RSK5
RSK5
US Bottom=0
RSK5
RSK5
US Bottom=0
RSK5
RSK5
US Bottom=0
RSK5
RSK5
RSK5
US Bottom=0
RSK5
RSK5
US Bottom=0
RSK5
RSK5
US Bottom=0
RSK5
RSK5
RSK5
US Bottom=0
RSK5
RSK5
US Bottom=0
RSK5
RSK5
US Bottom=0
RSK5
RSK5
RSK5
US Bottom=0
RSK5
RSK5
US Bottom=0
RSK5
RSK5
RSK5
RSK5
RSK5
RSK5
RSK5
RSK5
RSK5
RSK5
RSK5
RSK5
RSK5
RSK5
RSK5
RSK5
US Bottom=0
RSK5
RSK5
RSK5
RSK5
US Bottom=0
RSK5
RSK5
US Bottom=0
RSK5
RSK5
US Bottom=0
RSK5
RSK5
RSK5
RSK5
RSK5
RSK5
RSK5
RSK5
RSK5
US Bottom=0
RSK5
RSK5
RSK5
US Bottom=0
RSK5
RSK5
US Bottom=0
RSK5
RSK5
US Bottom=0
RSK5
RSK5
RSK5
US Bottom=0
RSK5
RSK5
US Bottom=0
RSK5
RSK5
US Bottom=0
RSK5
RSK5
RSK5
US Bottom=0
RSK5
RSK5
US Bottom=0
RSK5
RSK5
RSK5
RSK5
RSK5
RSK5
RSK5
RSK5
RSK5
US Bottom=0
RSK5
RSK5
RSK5
RSK5
US Bottom=0
RSK5
RSK5
US Bottom=0
RSK5
RSK5
US Bottom=0
RSK5
RSK5
RSK5
RSK5
RSK5
RSK5
RSK5
RSK5
RSK5
RSK5
RSK5
RSK5
US Bottom=0
RSK5
RSK5
US Bottom=0
RSK5
RSK5
US Bottom=0
RSK5
RSK5
RSK5
US Bottom=0
RSK5
RSK5
US Bottom=0
RSK5
RSK5
US Bottom=0
RSK5
RSK5
RSK5
US Bottom=0
RSK5
RSK5
US Bottom=0
RSK5
RSK5
US Bottom=0
RSK5
RSK5
RSK5
RSK5
US Bottom=0
RSK5
RSK5
US Bottom=0
RSK5
RSK5
US Bottom=0
RSK5
RSK5
RSK5
RSK5
RSK5
RSK5
RSK5
RSK5
RSK5
US Bottom=0
RSK5
RSK5
RSK5
US Bottom=0
RSK5
RSK5
US Bottom=0
RSK5
RSK5
US Bottom=0
RSK5
RSK5
RSK5
US Bottom=0
RSK5
RSK5
US Bottom=0
RSK5
RSK5
RSK5
RSK5
RSK5
RSK5
RSK5
RSK5
RSK5
RSK5
RSK5
RSK5
RSK5
RSK5
RSK5
RSK5
US Bottom=0
RSK5
RSK5
RSK5
US Bottom=0
RSK5
RSK5
US Bottom=0
RSK5
RSK5
US Bottom=0
RSK5
RSK5
RSK5
US Bottom=0
RSK5
RSK5
US Bottom=0
RSK5
RSK5
RSK5
RSK5
RSK5
RSK5
RSK5
RSK5
RSK5
US Bottom=0
RSK5
RSK5
RSK5
US Bottom=0
RSK5
RSK5
US Bottom=0
RSK5
RSK5
US Bottom=0
RSK5
RSK5
RSK5
RSK5
US Bottom=0
RSK5
RSK5
US Bottom=0
RSK5
RSK5
US Bottom=0
RSK5
RSK5
RSK5
RSK5
RSK5
RSK5
RSK5
RSK5
RSK5
US Bottom=0
RSK5
RSK5
RSK5
US Bottom=0
RSK5
RSK5
US Bottom=0
RSK5
RSK5
US Bottom=0
RSK5
RSK5
RSK5
US Bottom=0
RSK5
RSK5
US Bottom=0
RSK5
RSK5
RSK5
RSK5
RSK5
RSK5
RSK5
RSK5
RSK5
US Bottom=0
RSK5
RSK5
RSK5
US Bottom=0
RSK5
RSK5
US Bottom=0
RSK5
RSK5
US Bottom=0
RSK5
RSK5
RSK5
US Bottom=0
RSK5
RSK5
US Bottom=0
RSK5
RSK5
US Bottom=0
RSK5
RSK5
RSK5
US Bottom=0
RSK5
RSK5
US Bottom=0
RSK5
RSK5
US Bottom=0
RSK5
RSK5
RSK5
US Bottom=0
RSK5
RSK5
US Bottom=0
RSK5
RSK5
US Bottom=0
RSK5
RSK5
RSK5
US Bottom=0
RSK5
RSK5
US Bottom=0
RSK5
RSK5
US Bottom=0
RSK5
RSK5
RSK5
US Bottom=0
RSK5
RSK5
US Bottom=0
RSK5
RSK5
RSK5
RSK5
RSK5
RSK5
RSK5
RSK5
RSK5
RSK5
RSK5
RSK5
RSK5
RSK5
RSK5
RSK5
US Bottom=0
RSK5
RSK5
RSK5
RSK5
US Bottom=0
RSK5
RSK5
US Bottom=0
RSK5
RSK5
US Bottom=0
RSK5
RSK5
US Bottom=0
RSK5
RSK5
RSK5
US Bottom=0
RSK5
RSK5
US Bottom=0
RSK5
RSK5
US Bottom=0
RSK5
RSK5
RSK5
US Bottom=0
RSK5
RSK5
US Bottom=0
RSK5
RSK5
RSK5
RSK5
US Bottom=0
RSK5
RSK5
US Bottom=0
RSK5
RSK5
US Bottom=0
RSK5
RSK5
US Bottom=0
RSK5
RSK5
RSK5
RSK5
US Bottom=0
RSK5
RSK5
US Bottom=0
RSK5
RSK5
US Bottom=0
RSK5
RSK5
RSK5
RSK5
RSK5
RSK5
RSK5
RSK5
RSK5
US Bottom=0
RSK5
RSK5
RSK5
US Bottom=0
RSK5
RSK5
US Bottom=0
RSK5
RSK5
US Bottom=0
RSK5
RSK5
RSK5
US Bottom=0
RSK5
RSK5
US Bottom=0
RSK5
RSK5
RSK5
RSK5
RSK5
RSK5
RSK5
RSK5
RSK5
RSK5
RSK5
RSK5
RSK5
RSK5
RSK5
RSK5
US Bottom=0
RSK5
RSK5
RSK5
RSK5
RSK5
US Bottom=0
RSK5
US Bottom=0
RSK5
RSK5
RSK5
US Bottom=0
RSK5
RSK5
US Bottom=0
RSK5
RSK5
RSK5
RSK5
US Bottom=0
RSK5
RSK5
US Bottom=0
RSK5
RSK5
US Bottom=0
RSK5
RSK5
US Bottom=0
RSK5
RSK5
RSK5
US Bottom=0
RSK5
RSK5
US Bottom=0
RSK5
RSK5
RSK5
RSK5
RSK5
RSK5
RSK5
RSK5
RSK5
RSK5
RSK5
RSK5
RSK5
RSK5
RSK5
RSK5
US Bottom=0
RSK5
RSK5
RSK5
RSK5
US Bottom=0
RSK5
RSK5
US Bottom=0
RSK5
RSK5
US Bottom=0
RSK5
RSK5
RSK5
RSK5
RSK5
RSK5
RSK5
RSK5
RSK5
RSK5
RSK5
RSK5
RSK5
RSK5
RSK5
RSK5
US Bottom=0
RSK5
RSK5
RSK5
US Bottom=0
RSK5
RSK5
US Bottom=0
RSK5
RSK5
US Bottom=0
RSK5
RSK5
RSK5
US Bottom=0
RSK5
RSK5
RSK5
RSK5
US Bottom=0
RSK5
RSK5
RSK5
US Bottom=0
RSK5
RSK5
US Bottom=0
RSK5
RSK5
US Bottom=0
RSK5
RSK5
RSK5
US Bottom=0
RSK5
RSK5
US Bottom=0
RSK5
RSK5
RSK5
RSK5
RSK5
RSK5
RSK5
RSK5
RSK5
US Bottom=0
RSK5
RSK5
RSK5
US Bottom=0
RSK5
RSK5
US Bottom=0
RSK5
RSK5
US Bottom=0
RSK5
RSK5
RSK5
US Bottom=0
RSK5
RSK5
US Bottom=0
RSK5
RSK5
RSK5
RSK5
RSK5
RSK5
RSK5
RSK5
RSK5
US Bottom=0
RSK5
RSK5
RSK5
US Bottom=0
RSK5
RSK5
US Bottom=0
RSK5
RSK5
US Bottom=0
RSK5
RSK5
RSK5
US Bottom=0
RSK5
RSK5
US Bottom=0
RSK5
RSK5
US Bottom=0
RSK5
RSK5
RSK5
RSK5
US Bottom=0
RSK5
RSK5
US Bottom=0
RSK5
RSK5
US Bottom=0
RSK5
RSK5
RSK5
RSK5
RSK5
RSK5
RSK5
RSK5
RSK5
US Bottom=0
RSK5
RSK5
RSK5
US Bottom=0
RSK5
RSK5
US Bottom=0
RSK5
RSK5
US Bottom=0
RSK5
RSK5
RSK5
US Bottom=0
RSK5
RSK5
US Bottom=0
RSK5
RSK5
RSK5
RSK5
RSK5
RSK5
RSK5
RSK5
RSK5
RSK5
RSK5
RSK5
RSK5
RSK5
RSK5
RSK5
US Bottom=0
RSK5
RSK5
RSK5
RSK5
US Bottom=0
RSK5
RSK5
US Bottom=0
RSK5
RSK5
US Bottom=0
RSK5
RSK5
US Bottom=0
RSK5
RSK5
RSK5
RSK5
US Bottom=0
RSK5
RSK5
US Bottom=0
RSK5
RSK5
US Bottom=0
RSK5
RSK5
RSK5
RSK5
RSK5
RSK5
RSK5
RSK5
RSK5
US Bottom=0
RSK5
RSK5
RSK5
RSK5
US Bottom=0
RSK5
RSK5
US Bottom=0
RSK5
RSK5
US Bottom=0
RSK5
RSK5
RSK5
RSK5
RSK5
RSK5
RSK5
RSK5
RSK5
US Bottom=0
RSK5
RSK5
RSK5
US Bottom=0
RSK5
RSK5
US Bottom=0
RSK5
RSK5
US Bottom=0
RSK5
RSK5
RSK5
US Bottom=0
RSK5
RSK5
US Bottom=0
RSK5
RSK5
US Bottom=0
RSK5
RSK5
RSK5
US Bottom=0
RSK5
RSK5
US Bottom=0
RSK5
RSK5
US Bottom=0
RSK5
RSK5
RSK5
RSK5
US Bottom=0
RSK5
RSK5
US Bottom=0
RSK5
RSK5
US Bottom=0
RSK5
RSK5
RSK5
RSK5
RSK5
RSK5
RSK5
RSK5
RSK5
US Bottom=0
RSK5
RSK5
RSK5
US Bottom=0
RSK5
RSK5
US Bottom=0
RSK5
RSK5
US Bottom=0
RSK5
RSK5
RSK5
US Bottom=0
RSK5
RSK5
US Bottom=0
RSK5
RSK5
RSK5
RSK5
RSK5
RSK5
RSK5
RSK5
RSK5
RSK5
RSK5
RSK5
RSK5
RSK5
RSK5
RSK5
US Bottom=0
RSK5
RSK5
RSK5
RSK5
US Bottom=0
RSK5
RSK5
US Bottom=0
RSK5
RSK5
US Bottom=0
RSK5
RSK5
US Bottom=0
RSK5
RSK5
RSK5
US Bottom=0
RSK5
RSK5
US Bottom=0
RSK5
RSK5
RSK5
RSK5
RSK5
RSK5
RSK5
RSK5
RSK5
RSK5
RSK5
RSK5
RSK5
RSK5
RSK5
RSK5
US Bottom=0
RSK5
RSK5
RSK5
RSK5
US Bottom=0
RSK5
RSK5
US Bottom=0
RSK5
RSK5
US Bottom=0
RSK5
RSK5
US Bottom=0
RSK5
RSK5
RSK5
US Bottom=0
RSK5
RSK5
US Bottom=0
RSK5
RSK5
US Bottom=0
RSK5
RSK5
RSK5
US Bottom=0
RSK5
RSK5
US Bottom=0
RSK5
RSK5
US Bottom=0
RSK5
RSK5
RSK5
US Bottom=0
RSK5
RSK5
US Bottom=0
RSK5
RSK5
RSK5
RSK5
RSK5
RSK5
RSK5
RSK5
RSK5
RSK5
RSK5
RSK5
RSK5
RSK5
RSK5
RSK5
US Bottom=0
RSK5
RSK5
RSK5
RSK5
US Bottom=0
RSK5
RSK5
US Bottom=0
RSK5
RSK5
US Bottom=0
RSK5
RSK5
RSK5
RSK5
RSK5
RSK5
RSK5
RSK5
RSK5
US Bottom=0
RSK5
RSK5
RSK5
RSK5
US Bottom=0
RSK5
RSK5
US Bottom=0
RSK5
RSK5
US Bottom=0
RSK5
RSK5
RSK5
RSK5
RSK5
RSK5
RSK5
RSK5
RSK5
RSK5
RSK5
RSK5
RSK5
RSK5
RSK5
RSK5
US Bottom=0
RSK5
RSK5
RSK5
RSK5
US Bottom=0
RSK5
RSK5
US Bottom=0
RSK5
RSK5
US Bottom=0
RSK5
RSK5
US Bottom=0
RSK5
RSK5
RSK5
US Bottom=0
RSK5
RSK5
RSK5
RSK5
US Bottom=0
RSK5
RSK5
RSK5
RSK5
US Bottom=0
RSK5
RSK5
US Bottom=0
RSK5
RSK5
US Bottom=0
RSK5
RSK5
US Bottom=0
RSK5
RSK5
RSK5
US Bottom=0
RSK5
RSK5
US Bottom=0
RSK5
RSK5
US Bottom=0
RSK5
RSK5
RSK5
US Bottom=0
RSK5
RSK5
US Bottom=0
RSK5
RSK5
US Bottom=0
RSK5
RSK5
RSK5
US Bottom=0
RSK5
RSK5
US Bottom=0
RSK5
RSK5
RSK5
RSK5
RSK5
RSK5
RSK5
RSK5
RSK5
US Bottom=0
RSK5
RSK5
RSK5
US Bottom=0
RSK5
RSK5
US Bottom=0
RSK5
RSK5
US Bottom=0
RSK5
RSK5
RSK5
US Bottom=0
RSK5
RSK5
US Bottom=0
RSK5
RSK5
RSK5
RSK5
RSK5
RSK5
RSK5
RSK5
RSK5
US Bottom=0
RSK5
RSK5
RSK5
US Bottom=0
RSK5
RSK5
US Bottom=0
RSK5
RSK5
US Bottom=0
RSK5
RSK5
RSK5
US Bottom=0
RSK5
RSK5
US Bottom=0
RSK5
RSK5
US Bottom=0
RSK5
RSK5
RSK5
US Bottom=0
RSK5
RSK5
US Bottom=0
RSK5
RSK5
RSK5
RSK5
RSK5
RSK5
RSK5
RSK5
RSK5
RSK5
RSK5
RSK5
RSK5
RSK5
RSK5
RSK5
US Bottom=0
RSK5
RSK5
RSK5
US Bottom=0
RSK5
RSK5
US Bottom=0
RSK5
RSK5
US Bottom=0
RSK5
RSK5
RSK5
US Bottom=0
RSK5
RSK5
US Bottom=0
RSK5
RSK5
RSK5
RSK5
RSK5
RSK5
RSK5
RSK5
RSK5
US Bottom=0
RSK5
RSK5
RSK5
US Bottom=0
RSK5
RSK5
US Bottom=0
RSK5
RSK5
US Bottom=0
RSK5
RSK5
RSK5
US Bottom=0
RSK5
RSK5
US Bottom=0
RSK5
RSK5
US Bottom=0
RSK5
RSK5
RSK5
US Bottom=0
RSK5
RSK5
US Bottom=0
RSK5
RSK5
US Bottom=0
RSK5
RSK5
RSK5
US Bottom=0
RSK5
RSK5
US Bottom=0
RSK5
RSK5
RSK5
RSK5
US Bottom=0
RSK5
US Bottom=0
RSK5
RSK5
RSK5
US Bottom=0
RSK5
RSK5
US Bottom=0
RSK5
RSK5
RSK5
US Bottom=0
RSK5
RSK5
US Bottom=0
RSK5
RSK5
US Bottom=0
RSK5
RSK5
RSK5
US Bottom=0
RSK5
RSK5
US Bottom=0
RSK5
RSK5
US Bottom=0
RSK5
RSK5
RSK5
US Bottom=0
RSK5
RSK5
US Bottom=0
RSK5
RSK5
RSK5
RSK5
RSK5
RSK5
RSK5
RSK5
RSK5
RSK5
RSK5
RSK5
RSK5
RSK5
RSK5
RSK5
US Bottom=0
RSK5
RSK5
RSK5
RSK5
US Bottom=0
RSK5
RSK5
US Bottom=0
RSK5
RSK5
US Bottom=0
RSK5
RSK5
RSK5
RSK5
RSK5
RSK5
RSK5
RSK5
RSK5
US Bottom=0
RSK5
RSK5
RSK5
US Bottom=0
RSK5
RSK5
US Bottom=0
RSK5
RSK5
US Bottom=0
RSK5
RSK5
RSK5
US Bottom=0
RSK5
RSK5
US Bottom=0
RSK5
RSK5
US Bottom=0
RSK5
RSK5
RSK5
US Bottom=0
RSK5
RSK5
US Bottom=0
RSK5
RSK5
RSK5
RSK5
RSK5
RSK5
RSK5
RSK5
RSK5
RSK5
RSK5
RSK5
RSK5
RSK5
RSK5
RSK5
US Bottom=0
RSK5
RSK5
RSK5
RSK5
US Bottom=0
RSK5
RSK5
US Bottom=0
RSK5
RSK5
US Bottom=0
RSK5
RSK5
US Bottom=0
RSK5
RSK5
RSK5
US Bottom=0
RSK5
RSK5
US Bottom=0
RSK5
RSK5
RSK5
RSK5
US Bottom=0
RSK5
US Bottom=0
RSK5
RSK5
RSK5
US Bottom=0
RSK5
RSK5
US Bottom=0
RSK5
RSK5
RSK5
US Bottom=0
RSK5
RSK5
US Bottom=0
RSK5
RSK5
RSK5
RSK5
RSK5
RSK5
RSK5
RSK5
RSK5
US Bottom=0
RSK5
RSK5
RSK5
US Bottom=0
RSK5
RSK5
US Bottom=0
RSK5
RSK5
US Bottom=0
RSK5
RSK5
RSK5
RSK5
US Bottom=0
RSK5
RSK5
US Bottom=0
RSK5
RSK5
US Bottom=0
RSK5
RSK5
RSK5
RSK5
RSK5
RSK5
RSK5
RSK5
RSK5
US Bottom=0
RSK5
RSK5
RSK5
RSK5
US Bottom=0
RSK5
RSK5
US Bottom=0
RSK5
RSK5
US Bottom=0
RSK5
RSK5
RSK5
RSK5
RSK5
RSK5
RSK5
RSK5
RSK5
US Bottom=0
RSK5
RSK5
RSK5
US Bottom=0
RSK5
RSK5
US Bottom=0
RSK5
RSK5
US Bottom=0
RSK5
RSK5
RSK5
US Bottom=0
RSK5
RSK5
US Bottom=0
RSK5
RSK5
US Bottom=0
RSK5
RSK5
RSK5
US Bottom=0
RSK5
RSK5
US Bottom=0
RSK5
OVERLOAD ! : 917
RSK5
RSK5
RSK5
RSK5
RSK5
RSK5
US Bottom=0
RSK5
RSK5
US Bottom=0
RSK5
RSK5
RSK5
US Bottom=0
RSK5
RSK5
US Bottom=0
RSK5
RSK5
RSK5
RSK5
RSK5
RSK5
RSK5
RSK5
RSK5
US Bottom=0
RSK5
RSK5
RSK5
US Bottom=0
RSK5
RSK5
US Bottom=0
RSK5
RSK5
US Bottom=0
RSK5
RSK5
RSK5
US Bottom=0
RSK5
RSK5
US Bottom=0
RSK5
RSK5
RSK5
RSK5
RSK5
RSK5
RSK5
RSK5
RSK5
RSK5
RSK5
RSK5
RSK5
RSK5
RSK5
RSK5
US Bottom=0
RSK5
RSK5
RSK5
US Bottom=0
RSK5
RSK5
US Bottom=0
RSK5
RSK5
US Bottom=0
RSK5
RSK5
RSK5
US Bottom=0
RSK5
RSK5
US Bottom=0
RSK5
RSK5
US Bottom=0
RSK5
RSK5
RSK5
US Bottom=0
RSK5
RSK5
US Bottom=0
RSK5
RSK5
RSK5
RSK5
RSK5
RSK5
RSK5
RSK5
RSK5
US Bottom=0
RSK5
RSK5
RSK5
US Bottom=0
RSK5
RSK5
US Bottom=0
RSK5
RSK5
US Bottom=0
RSK5
RSK5
RSK5
US Bottom=0
RSK5
RSK5
US Bottom=0
RSK5
RSK5
RSK5
RSK5
RSK5
RSK5
RSK5
RSK5
RSK5
RSK5
RSK5
RSK5
RSK5
RSK5
RSK5
RSK5
US Bottom=0
RSK5
RSK5
RSK5
US Bottom=0
RSK5
RSK5
US Bottom=0
RSK5
RSK5
US Bottom=0
RSK5
RSK5
RSK5
US Bottom=0
RSK5
RSK5
US Bottom=0
RSK5
RSK5
RSK5
RSK5
RSK5
RSK5
RSK5
RSK5
RSK5
RSK5
RSK5
RSK5
RSK5
RSK5
RSK5
RSK5
US Bottom=0
RSK5
RSK5
RSK5
US Bottom=0
RSK5
RSK5
US Bottom=0
RSK5
RSK5
US Bottom=0
RSK5
RSK5
RSK5
US Bottom=0
RSK5
RSK5
US Bottom=0
RSK5
RSK5
US Bottom=0
RSK5
RSK5
RSK5
US Bottom=0
RSK5
RSK5
US Bottom=0
RSK5
RSK5
RSK5
RSK5
US Bottom=0
RSK5
RSK5
US Bottom=0
RSK5
RSK5
US Bottom=0
RSK5
RSK5
US Bottom=0
RSK5
RSK5
RSK5
US Bottom=0
RSK5
RSK5
US Bottom=0
RSK5
RSK5
RSK5
RSK5
RSK5
RSK5
RSK5
RSK5
RSK5
RSK5
RSK5
RSK5
RSK5
RSK5
RSK5
RSK5
US Bottom=0
RSK5
RSK5
RSK5
US Bottom=0
RSK5
RSK5
US Bottom=0
RSK5
RSK5
US Bottom=0
RSK5
RSK5
RSK5
US Bottom=0
RSK5
RSK5
US Bottom=0
RSK5
RSK5
US Bottom=0
RSK5
RSK5
RSK5
US Bottom=0
RSK5
RSK5
US Bottom=0
RSK5
RSK5
RSK5
RSK5
RSK5
RSK5
RSK5
RSK5
RSK5
RSK5
RSK5
RSK5
RSK5
RSK5
RSK5
RSK5
US Bottom=0
RSK5
RSK5
RSK5
US Bottom=0
RSK5
RSK5
US Bottom=0
RSK5
RSK5
US Bottom=0
RSK5
RSK5
RSK5
US Bottom=0
RSK5
RSK5
US Bottom=0
RSK5
RSK5
US Bottom=0
RSK5
RSK5
RSK5
US Bottom=0
RSK5
RSK5
US Bottom=0
RSK5
RSK5
RSK5
RSK5
US Bottom=0
RSK5
US Bottom=0
RSK5
RSK5
RSK5
US Bottom=0
RSK5
RSK5
US Bottom=0
RSK5
RSK5
RSK5
US Bottom=0
RSK5
RSK5
US Bottom=0
RSK5
RSK5
RSK5
RSK5
RSK5
RSK5
RSK5
RSK5
RSK5
RSK5
RSK5
RSK5
RSK5
RSK5
RSK5
RSK5
US Bottom=0
RSK5
RSK5
RSK5
RSK5
US Bottom=0
RSK5
RSK5
US Bottom=0
RSK5
RSK5
US Bottom=0
RSK5
RSK5
US Bottom=0
RSK5
RSK5
RSK5
US Bottom=0
RSK5
RSK5
US Bottom=0
RSK5
RSK5
RSK5
RSK5
RSK5
RSK5
RSK5
RSK5
RSK5
RSK5
RSK5
RSK5
RSK5
RSK5
RSK5
RSK5
US Bottom=0
RSK5
RSK5
RSK5
US Bottom=0
RSK5
RSK5
US Bottom=0
RSK5
RSK5
US Bottom=0
RSK5
RSK5
RSK5
US Bottom=0
RSK5
RSK5
US Bottom=0
RSK5
RSK5
RSK5
RSK5
RSK5
RSK5
RSK5
RSK5
RSK5
RSK5
RSK5
RSK5
RSK5
RSK5
RSK5
RSK5
US Bottom=0
RSK5
RSK5
RSK5
RSK5
US Bottom=0
RSK5
RSK5
US Bottom=0
RSK5
RSK5
US Bottom=0
RSK5
RSK5
US Bottom=0
RSK5
RSK5
RSK5
US Bottom=0
RSK5
RSK5
US Bottom=0
RSK5
RSK5
RSK5
Fin Alarm !
US Bottom=0
RSK5
RSK5
RSK5
RSK5
RSK5
US Bottom=0
RSK5
RSK5
RSK5
US Bottom=0
RSK5
RSK5
US Bottom=0
RSK5
RSK5
US Bottom=0
RSK5
RSK5
RSK5
US Bottom=0
RSK5
RSK5
US Bottom=0
RSK5
RSK5
RSK5
RSK5
RSK5
RSK5
RSK5
RSK5
RSK5
RSK5
RSK5
RSK5
RSK5
RSK5
RSK5
RSK5
RSK5
RSK5
RSK5
RSK5
RSK5
RSK5
RSK5
RSK5
RSK5
RSK5
RSK5
RSK5
RSK5
RSK5
RSK5
RSK5
RSK5
RSK5
RSK5
RSK5
RSK5
RSK5
RSK5
RSK5
RSK5
RSK5
RSK5
RSK5
RSK5
RSK5
RSK5
RSK5
RSK5
RSK5
RSK5
RSK5
RSK5
RSK5
RSK5
RSK5
RSK5
RSK5
RSK5
RSK5
RSK5
RSK5
RSK5
RSK5
RSK5
RSK5
RSK5
RSK5
RSK5
RSK5
RSK5
RSK5
RSK5
RSK5
RSK5
RSK5
RSK5
RSK5
RSK5
RSK5
RSK5
RSK5
RSK5
RSK5
RSK5
RSK5
RSK5
RSK5
RSK5
RSK5
RSK5
RSK5
RSK5
RSK5
RSK5
RSK5
RSK5
RSK5
RSK5
RSK5
RSK5
RSK5
RSK5
RSK5
RSK5
RSK5
RSK5
RSK5
RSK5
RSK5
RSK5
RSK5
RSK5
RSK5
RSK5
RSK5
RSK5
RSK5
RSK5
RSK5
RSK5
RSK5
RSK5
RSK5
RSK5
RSK5
RSK5
RSK5
RSK5
RSK5
RSK5
RSK5
RSK5
RSK5
RSK5
RSK5
RSK5
RSK5
RSK5
RSK5
RSK5
RSK5
RSK5
RSK5
RSK5
RSK5
RSK5
RSK5
RSK5
RSK5
RSK5
RSK5
RSK5
RSK5
RSK5
RSK5
RSK5
RSK5
RSK5
RSK5
RSK5
RSK5
RSK5
RSK5
RSK5
RSK5
RSK5
RSK5
RSK5
RSK5
RSK5
RSK5
RSK5
RSK5
RSK5
RSK5
RSK5
RSK5
RSK5
RSK5
RSK5
RSK5
RSK5
RSK5
RSK5
RSK5
RSK5
RSK5
RSK5
RSK5
RSK5
RSK5
RSK5
RSK5
RSK5
RSK5
RSK5
RSK5
RSK5
RSK5
RSK5
RSK5
RSK5
RSK5
RSK5
RSK5
RSK5
RSK5
RSK5
RSK5
RSK5
RSK5
RSK5
RSK5
RSK5
RSK5
RSK5
RSK5
RSK5
RSK5
RSK5
RSK5
RSK5
RSK5
RSK5
RSK5
RSK5
RSK5
RSK5
RSK5
RSK5
RSK5
RSK5
RSK5
RSK5
RSK5
RSK5
RSK5
RSK5
RSK5
RSK5
RSK5
RSK5
RSK5
RSK5
RSK5
RSK5
RSK5
RSK5
RSK5
RSK5
RSK5
RSK5
RSK5
RSK5
RSK5
RSK5
RSK5
RSK5
RSK5
RSK5
RSK5
RSK5
RSK5
RSK5
RSK5
RSK5
RSK5
RSK5
RSK5
RSK5
RSK5
RSK5
RSK5
RSK5
RSK5
RSK5
RSK5
RSK5
RSK5
RSK5
RSK5
RSK5
RSK5
RSK5
RSK5
RSK5
RSK5
RSK5
RSK5
RSK5
RSK5
RSK5
RSK5
RSK5
RSK5
RSK5
RSK5
RSK5
RSK5
RSK5
RSK5
RSK5
RSK5
RSK5
RSK5
RSK5
RSK5
RSK5
RSK5
RSK5
RSK5
RSK5
RSK5
RSK5
RSK5
RSK5
RSK5
RSK5
RSK5
RSK5
RSK5
RSK5
RSK5
RSK5
RSK5
RSK5
RSK5
RSK5
RSK5
RSK5
RSK5
RSK5
RSK5
RSK5
RSK5
RSK5
RSK5
RSK5
RSK5
RSK5
RSK5
RSK5
RSK5
RSK5
RSK5
RSK5
RSK5
RSK5
RSK5
RSK5
RSK5
RSK5
RSK5
RSK5
RSK5
RSK5
RSK5
RSK5
RSK5
RSK5
RSK5
RSK5
RSK5
RSK5
RSK5
RSK5
RSK5
RSK5
RSK5
RSK5
RSK5
RSK5
RSK5
RSK5
RSK5
RSK5
RSK5
RSK5
RSK5
RSK5
RSK5
RSK5
RSK5
RSK5
RSK5
RSK5
RSK5
RSK5
RSK5
RSK5
RSK5
RSK5
RSK5
RSK5
RSK5
RSK5
RSK5
RSK5
RSK5
RSK5
RSK5
RSK5
RSK5
RSK5
RSK5
RSK5
RSK5
RSK5
RSK5
RSK5
RSK5
RSK5
RSK5
RSK5
RSK5
RSK5
RSK5
RSK5
RSK5
RSK5
RSK5
RSK5
RSK5
RSK5
RSK5
RSK5
RSK5
RSK5
RSK5
RSK5
RSK5
RSK5
RSK5
RSK5
RSK5
RSK5
RSK5
RSK5
RSK5
RSK5
RSK5
RSK5
RSK5
RSK5
RSK5
RSK5
RSK5
RSK5
RSK5
RSK5
RSK5
RSK5
RSK5
RSK5
RSK5
RSK5
RSK5
RSK5
RSK5
RSK5
RSK5
RSK5
RSK5
RSK5
RSK5
RSK5
RSK5
RSK5
RSK5
RSK5
RSK5
RSK5
RSK5
RSK5
RSK5
RSK5
RSK5
RSK5
RSK5
RSK5
RSK5
RSK5
RSK5
RSK5
RSK5
RSK5
RSK5
RSK5
RSK5
RSK5
RSK5
RSK5
RSK5
RSK5
RSK5
RSK5
RSK5
RSK5
RSK5
RSK5
RSK5
RSK5
RSK5
RSK5
RSK5
RSK5
RSK5
RSK5
RSK5
RSK5
RSK5
RSK5
RSK5
RSK5
RSK5
RSK5
RSK5
RSK5
RSK5
RSK5
RSK5
RSK5
RSK5
RSK5
RSK5
RSK5
RSK5
RSK5
RSK5
RSK5
RSK5
RSK5
RSK5
RSK5
RSK5
RSK5
RSK5
RSK5
RSK5
RSK5
RSK5
RSK5
RSK5
RSK5
RSK5
RSK5
RSK5
RSK5
RSK5
RSK5
RSK5
RSK5
RSK5
RSK5
RSK5
RSK5
RSK5
RSK5
RSK5
RSK5
RSK5
RSK5
RSK5
RSK5
RSK5
RSK5
RSK5
RSK5
RSK5
RSK5
RSK5
RSK5
RSK5
RSK5
RSK5
RSK5
RSK5
RSK5
RSK5
RSK5
RSK5
RSK5
RSK5
RSK5
RSK5
RSK5
RSK5
RSK5
RSK5
RSK5
RSK5
RSK5
RSK5
RSK5
RSK5
RSK5
RSK5
RSK5
RSK5
RSK5
RSK5
RSK5
RSK5
RSK5
RSK5
RSK5
RSK5
RSK5
RSK5
RSK5
RSK5
RSK5
RSK5
RSK5
RSK5
RSK5
RSK5
RSK5
RSK5
RSK5
RSK5
RSK5
RSK5
RSK5
RSK5
RSK5
RSK5
RSK5
RSK5
RSK5
RSK5
RSK5
RSK5
RSK5
RSK5
RSK5
RSK5
RSK5
RSK5
RSK5
RSK5
RSK5
RSK5
RSK5
RSK5
RSK5
RSK5
RSK5
RSK5
RSK5
RSK5
RSK5
RSK5
RSK5
RSK5
RSK5
RSK5
RSK5
RSK5
RSK5
RSK5
RSK5
RSK5
RSK5
RSK5
RSK5
RSK5
RSK5
RSK5
RSK5
RSK5
RSK5
RSK5
RSK5
RSK5
RSK5
RSK5
RSK5
RSK5
RSK5
RSK5
RSK5
RSK5
RSK5
RSK5
RSK5
RSK5
RSK5
RSK5
RSK5
RSK5
RSK5
RSK5
RSK5
RSK5
RSK5
RSK5
RSK5
RSK5
RSK5
RSK5
RSK5
RSK5
RSK5
RSK5
RSK5
RSK5
RSK5
RSK5
RSK5
RSK5
RSK5
RSK5
RSK5
RSK5
RSK5
RSK5
RSK5
RSK5
RSK5
RSK5
RSK5
RSK5
RSK5
RSK5
RSK5
RSK5
RSK5
RSK5
RSK5
RSK5
RSK5
RSK5
RSK5
RSK5
RSK5
RSK5
RSK5
RSK5
RSK5
RSK5
RSK5
RSK5
RSK5
RSK5
RSK5
RSK5
RSK5
RSK5
RSK5
RSK5
RSK5
RSK5
RSK5
RSK5
RSK5
RSK5
RSK5
RSK5
RSK5
RSK5
RSK5
RSK5
RSK5
RSK5
RSK5
RSK5
RSK5
RSK5
RSK5
RSK5
RSK5
RSK5
RSK5
RSK5
RSK5
RSK5
RSK5
RSK5
RSK5
RSK5
RSK5
RSK5
RSK5
RSK5
RSK5
RSK5
RSK5
RSK5
RSK5
RSK5
RSK5
RSK5
RSK5
RSK5
RSK5
RSK5
RSK5
RSK5
RSK5
RSK5
RSK5
RSK5
RSK5
RSK5
RSK5
RSK5
RSK5
RSK5
RSK5
RSK5
RSK5
RSK5
RSK5
RSK5
RSK5
RSK5
RSK5
RSK5
RSK5
RSK5
RSK5
RSK5
RSK5
RSK5
RSK5
RSK5
RSK5
RSK5
RSK5
RSK5
RSK5
RSK5
RSK5
RSK5
RSK5
RSK5
RSK5
RSK5
RSK5
RSK5
RSK5
RSK5
RSK5
RSK5
RSK5
RSK5
RSK5
RSK5
RSK5
RSK5
RSK5
RSK5
RSK5
RSK5
RSK5
RSK5
RSK5
RSK5
RSK5
RSK5
RSK5
RSK5
RSK5
RSK5
RSK5
RSK5
RSK5
RSK5
RSK5
RSK5
RSK5
RSK5
RSK5
RSK5
RSK5
RSK5
RSK5
RSK5
RSK5
RSK5
RSK5
RSK5
RSK5
RSK5
RSK5
RSK5
RSK5
RSK5
RSK5
RSK5
RSK5
RSK5
RSK5
RSK5
RSK5
RSK5
RSK5
RSK5
RSK5
RSK5
RSK5
RSK5
RSK5
RSK5
RSK5
RSK5
RSK5
RSK5
RSK5
RSK5
RSK5
RSK5
RSK5
RSK5
RSK5
RSK5
RSK5
RSK5
RSK5
RSK5
RSK5
RSK5
RSK5
RSK5
RSK5
RSK5
RSK5
RSK5
RSK5
RSK5
RSK5
RSK5
RSK5
RSK5
RSK5
RSK5
RSK5
RSK5
RSK5
RSK5
RSK5
RSK5
RSK5
RSK5
RSK5
RSK5
RSK5
RSK5
RSK5
RSK5
RSK5
RSK5
RSK5
RSK5
RSK5
RSK5
RSK5
RSK5
RSK5
RSK5
RSK5
RSK5
RSK5
RSK5
RSK5
RSK5
RSK5
RSK5
RSK5
RSK5
RSK5
RSK5
RSK5
RSK5
RSK5
RSK5
RSK5
RSK5
RSK5
RSK5
RSK5
RSK5
RSK5
RSK5
RSK5
RSK5
RSK5
RSK5
RSK5
RSK5
RSK5
RSK5
RSK5
RSK5
RSK5
RSK5
RSK5
RSK5
RSK5
RSK5
RSK5
RSK5
RSK5
RSK5
RSK5
RSK5
RSK5
RSK5
RSK5
RSK5
RSK5
RSK5
RSK5
RSK5
RSK5
RSK5
RSK5
RSK5
RSK5
RSK5
RSK5
RSK5
RSK5
RSK5
RSK5
RSK5
RSK5
RSK5
RSK5
RSK5
RSK5
RSK5
RSK5
RSK5
RSK5
RSK5
RSK5
RSK5
RSK5
RSK5
RSK5
RSK5
RSK5
RSK5
RSK5
RSK5
RSK5
RSK5
RSK5
RSK5
RSK5
RSK5
RSK5
RSK5
RSK5
RSK5
RSK5
RSK5
RSK5
RSK5
RSK5
RSK5
RSK5
RSK5
RSK5
RSK5
RSK5
RSK5
RSK5
RSK5
RSK5
RSK5
RSK5
RSK5
RSK5
RSK5
RSK5
RSK5
RSK5
RSK5
RSK5
RSK5
RSK5
RSK5
RSK5
RSK5
RSK5
RSK5
RSK5
RSK5
RSK5
RSK5
RSK5
RSK5
RSK5
RSK5
RSK5
RSK5
RSK5
RSK5
RSK5
RSK5
RSK5
RSK5
RSK5
RSK5
RSK5
RSK5
RSK5
RSK5
RSK5
RSK5
RSK5
RSK5
RSK5
RSK5
RSK5
RSK5
RSK5
RSK5
RSK5
RSK5
RSK5
RSK5
RSK5
RSK5
RSK5
RSK5
RSK5
RSK5
RSK5
RSK5
RSK5
RSK5
RSK5
RSK5
RSK5
RSK5
RSK5
RSK5
RSK5
RSK5
RSK5
RSK5
RSK5
RSK5
RSK5
RSK5
RSK5
RSK5
RSK5
RSK5
RSK5
RSK5
RSK5
RSK5
RSK5
RSK5
RSK5
RSK5
RSK5
RSK5
RSK5
RSK5
RSK5
RSK5
RSK5
RSK5
RSK5
RSK5
RSK5
RSK5
RSK5
RSK5
RSK5
RSK5
RSK5
RSK5
RSK5
RSK5
RSK5
RSK5
RSK5
RSK5
RSK5
RSK5
RSK5
RSK5
RSK5
RSK5
RSK5
RSK5
RSK5
RSK5
RSK5
RSK5
RSK5
RSK5
RSK5
RSK5
RSK5
RSK5
RSK5
RSK5
RSK5
RSK5
RSK5
RSK5
RSK5
RSK5
RSK5
RSK5
RSK5
RSK5
RSK5
RSK5
RSK5
RSK5
RSK5
RSK5
RSK5
RSK5
RSK5
RSK5
RSK5
RSK5
RSK5
RSK5
RSK5
RSK5
RSK5
RSK5
RSK5
RSK5
RSK5
RSK5
RSK5
RSK5
RSK5
RSK5
RSK5
RSK5
RSK5
RSK5
RSK5
RSK5
RSK5
RSK5
RSK5
RSK5
RSK5
RSK5
RSK5
RSK5
RSK5
RSK5
RSK5
RSK5
RSK5
RSK5
RSK5
RSK5
RSK5
RSK5
RSK5
RSK5
RSK5
RSK5
RSK5
RSK5
RSK5
RSK5
RSK5
RSK5
RSK5
RSK5
RSK5
RSK5
RSK5
RSK5
RSK5
RSK5
RSK5
RSK5
RSK5
RSK5
RSK5
RSK5
RSK5
RSK5
RSK5
RSK5
RSK5
RSK5
RSK5
RSK5
RSK5
RSK5
RSK5
RSK5
RSK5
RSK5
RSK5
RSK5
RSK5
RSK5
RSK5
RSK5
RSK5
RSK5
RSK5
RSK5
RSK5
RSK5
RSK5
RSK5
RSK5
RSK5
RSK5
RSK5
RSK5
RSK5
RSK5
RSK5
RSK5
RSK5
RSK5
RSK5
RSK5
RSK5
RSK5
RSK5
RSK5
RSK5
RSK5
RSK5
RSK5
RSK5
RSK5
RSK5
RSK5
RSK5
RSK5
RSK5
RSK5
RSK5
RSK5
RSK5
RSK5
RSK5
RSK5
RSK5
RSK5
RSK5
RSK5
RSK5
RSK5
RSK5
RSK5
RSK5
RSK5
RSK5
RSK5
RSK5
RSK5
RSK5
RSK5
RSK5
RSK5
RSK5
RSK5
RSK5
RSK5
RSK5
RSK5
RSK5
RSK5
RSK5
RSK5
RSK5
RSK5
RSK5
RSK5
RSK5
RSK5
RSK5
RSK5
RSK5
RSK5
RSK5
RSK5
RSK5
RSK5
RSK5
RSK5
RSK5
RSK5
RSK5
RSK5
RSK5
RSK5
RSK5
RSK5
RSK5
RSK5
RSK5
RSK5
RSK5
RSK5
RSK5
RSK5
RSK5
RSK5
RSK5
RSK5
RSK5
RSK5
RSK5
RSK5
RSK5
RSK5
RSK5
RSK5
RSK5
RSK5
RSK5
RSK5
RSK5
RSK5
RSK5
RSK5
RSK5
RSK5
RSK5
RSK5
RSK5
RSK5
RSK5
RSK5
RSK5
RSK5
RSK5
RSK5
RSK5
RSK5
RSK5
RSK5
RSK5
RSK5
RSK5
RSK5
RSK5
RSK5
RSK5
RSK5
RSK5
RSK5
RSK5
RSK5
RSK5
RSK5
RSK5
RSK5
RSK5
RSK5
RSK5
RSK5
RSK5
RSK5
RSK5
RSK5
RSK5
RSK5
RSK5
RSK5
RSK5
RSK5
RSK5
RSK5
RSK5
RSK5
RSK5
RSK5
RSK5
RSK5
RSK5
RSK5
RSK5
RSK5
RSK5
RSK5
RSK5
RSK5
RSK5
RSK5
RSK5
RSK5
RSK5
RSK5
RSK5
RSK5
RSK5
RSK5
RSK5
RSK5
RSK5
RSK5
RSK5
RSK5
RSK5
RSK5
RSK5
RSK5
RSK5
RSK5
RSK5
RSK5
RSK5
RSK5
RSK5
RSK5
RSK5
RSK5
RSK5
RSK5
RSK5
RSK5
RSK5
RSK5
RSK5
RSK5
RSK5
RSK5
RSK5
RSK5
RSK5
RSK5
RSK5
RSK5
RSK5
RSK5
RSK5
RSK5
RSK5
RSK5
RSK5
RSK5
RSK5
RSK5
RSK5
RSK5
RSK5
RSK5
RSK5
RSK5
RSK5
RSK5
RSK5
RSK5
RSK5
RSK5
RSK5
RSK5
RSK5
RSK5
RSK5
RSK5
RSK5
RSK5
RSK5
RSK5
RSK5
RSK5
RSK5
RSK5
RSK5
RSK5
RSK5
RSK5
RSK5
RSK5
RSK5
RSK5
RSK5
RSK5
RSK5
RSK5
RSK5
RSK5
RSK5
RSK5
RSK5
RSK5
RSK5
RSK5
RSK5
RSK5
RSK5
RSK5
RSK5
RSK5
RSK5
RSK5
RSK5
RSK5
RSK5
RSK5
RSK5
RSK5
RSK5
RSK5
RSK5
RSK5
RSK5
RSK5
RSK5
RSK5
RSK5
RSK5
RSK5
RSK5
RSK5
RSK5
RSK5
RSK5
RSK5
RSK5
RSK5
RSK5
RSK5
RSK5
RSK5
RSK5
RSK5
RSK5
RSK5
RSK5
RSK5
RSK5
RSK5
RSK5
RSK5
RSK5
RSK5
RSK5
RSK5
RSK5
RSK5
RSK5
RSK5
RSK5
RSK5
RSK5
RSK5
RSK5
RSK5
RSK5
RSK5
RSK5
RSK5
RSK5
RSK5
RSK5
RSK5
RSK5
RSK5
RSK5
RSK5
RSK5
RSK5
RSK5
RSK5
RSK5
RSK5
RSK5
RSK5
RSK5
RSK5
RSK5
RSK5
RSK5
RSK5
RSK5
RSK5
RSK5
RSK5
RSK5
RSK5
RSK5
RSK5
RSK5
RSK5
RSK5
RSK5
RSK5
RSK5
RSK5
RSK5
RSK5
RSK5
RSK5
RSK5
RSK5
RSK5
RSK5
RSK5
RSK5
RSK5
RSK5
RSK5
RSK5
RSK5
RSK5
RSK5
RSK5
RSK5
RSK5
RSK5
RSK5
RSK5
RSK5
RSK5
RSK5
RSK5
RSK5
RSK5
RSK5
RSK5
RSK5
RSK5
RSK5
RSK5
RSK5
RSK5
RSK5
RSK5
RSK5
RSK5
RSK5
RSK5
RSK5
RSK5
RSK5
RSK5
RSK5
RSK5
RSK5
RSK5
RSK5
RSK5
RSK5
RSK5
RSK5
RSK5
RSK5
RSK5
RSK5
RSK5
RSK5
RSK5
RSK5
RSK5
RSK5
RSK5
RSK5
RSK5
RSK5
RSK5
RSK5
RSK5
RSK5
RSK5
RSK5
RSK5
RSK5
RSK5
RSK5
RSK5
RSK5
RSK5
RSK5
RSK5
RSK5
RSK5
RSK5
RSK5
RSK5
RSK5
RSK5
RSK5
RSK5
RSK5
RSK5
RSK5
RSK5
RSK5
RSK5
RSK5
RSK5
RSK5
RSK5
RSK5
RSK5
RSK5
RSK5
RSK5
RSK5
RSK5
RSK5
RSK5
RSK5
RSK5
RSK5
RSK5
RSK5
RSK5
RSK5
RSK5
RSK5
RSK5
RSK5
RSK5
RSK5
RSK5
RSK5
RSK5
RSK5
RSK5
RSK5
RSK5
RSK5
RSK5
RSK5
RSK5
RSK5
RSK5
RSK5
RSK5
RSK5
RSK5
RSK5
RSK5
RSK5
RSK5
RSK5
RSK5
RSK5
RSK5
RSK5
RSK5
RSK5
RSK5
RSK5
RSK5
RSK5
RSK5
RSK5
RSK5
RSK5
RSK5
RSK5
RSK5
RSK5
RSK5
RSK5
RSK5
RSK5
RSK5
RSK5
RSK5
RSK5
RSK5
RSK5
RSK5
RSK5
RSK5
RSK5
RSK5
RSK5
RSK5
RSK5
RSK5
RSK5
RSK5
RSK5
RSK5
RSK5
RSK5
RSK5
RSK5
RSK5
RSK5
RSK5
RSK5
RSK5
RSK5
RSK5
RSK5
RSK5
RSK5
RSK5
RSK5
RSK5
RSK5
RSK5
Echec transmission : trop d'essais infructeux
Too many retries => STOP
Too many retries => STOP
Too many retries => STOP
Too many retries => STOP
Too many retries => STOP
Too many retries => STOP
Too many retries => STOP
Too many retries => STOP
Too many retries => STOP
Too many retries => STOP
Too many retries => STOP
Too many retries => STOP
Too many retries => STOP
Too many retries => STOP
Too many retries => STOP
Too many retries => STOP
Too many retries => STOP
Too many retries => STOP
Too many retries => STOP
Too many retries => STOP
Too many retries => STOP
Too many retries => STOP
Too many retries => STOP
Too many retries => STOP
Too many retries => STOP
Too many retries => STOP
Too many retries => STOP
Too many retries => STOP
Too many retries => STOP
Too many retries => STOP
Too many retries => STOP
Too many retries => STOP
Too many retries => STOP
Too many retries => STOP
Too many retries => STOP
Too many retries => STOP
Too many retries => STOP
Too many retries => STOP
Too many retries => STOP
Too many retries => STOP
Too many retries => STOP
Too many retries => STOP
Too many retries => STOP
Too many retries => STOP
Too many retries => STOP
Too many retries => STOP
Too many retries => STOP
Too many retries => STOP
Too many retries => STOP
Too many retries => STOP
Too many retries => STOP
Too many retries => STOP
Too many retries => STOP
Too many retries => STOP
Too many retries => STOP
Too many retries => STOP
Too many retries => STOP
Too many retries => STOP
Too many retries => STOP
Too many retries => STOP
Too many retries => STOP
Too many retries => STOP
Too many retries => STOP
Too many retries => STOP
Too many retries => STOP
Too many retries => STOP
Too many retries => STOP
Too many retries => STOP
Too many retries => STOP
Too many retries => STOP
Too many retries => STOP
Too many retries => STOP
Too many retries => STOP
Too many retries => STOP
Too many retries => STOP
Too many retries => STOP
Too many retries => STOP
Too many retries => STOP
Too many retries => STOP
Too many retries => STOP
Too many retries => STOP
Too many retries => STOP
Too many retries => STOP
Too many retries => STOP
Too many retries => STOP
Too many retries => STOP
Too many retries => STOP
Too many retries => STOP
Too many retries => STOP
Too many retries => STOP
Too many retries => STOP
Too many retries => STOP
Too many retries => STOP
Too many retries => STOP
Too many retries => STOP
Too many retries => STOP
Too many retries => STOP
Too many retries => STOP
Too many retries => STOP
Too many retries => STOP
Too many retries => STOP
Too many retries => STOP
Too many retries => STOP
Too many retries => STOP
Too many retries => STOP
Too many retries => STOP
Too many retries => STOP
Too many retries => STOP
Too many retries => STOP
Too many retries => STOP
Too many retries => STOP
Too many retries => STOP
Too many retries => STOP
Too many retries => STOP
Too many retries => STOP
Too many retries => STOP
Too many retries => STOP
Too many retries => STOP
Too many retries => STOP
Too many retries => STOP
Too many retries => STOP
Too many retries => STOP
Too many retries => STOP
Too many retries => STOP
Too many retries => STOP
Too many retries => STOP
Too many retries => STOP
Too many retries => STOP
Too many retries => STOP
Too many retries => STOP
Too many retries => STOP
Too many retries => STOP
Too many retries => STOP
Too many retries => STOP
Too many retries => STOP
Too many retries => STOP
Too many retries => STOP
Too many retries => STOP
Too many retries => STOP
Too many retries => STOP
Too many retries => STOP
Too many retries => STOP
Too many retries => STOP
Too many retries => STOP
Too many retries => STOP
Too many retries => STOP
Too many retries => STOP
Too many retries => STOP
Too many retries => STOP
Too many retries => STOP
Too many retries => STOP
Too many retries => STOP
Too many retries => STOP
Too many retries => STOP
Too many retries => STOP
Too many retries => STOP
Too many retries => STOP
Too many retries => STOP
Too many retries => STOP
Too many retries => STOP
Too many retries => STOP
Too many retries => STOP
Too many retries => STOP
Too many retries => STOP
Too many retries => STOP
Too many retries => STOP
Too many retries => STOP
Too many retries => STOP
Too many retries => STOP
Too many retries => STOP
Too many retries => STOP
Too many retries => STOP
Too many retries => STOP
Too many retries => STOP
Too many retries => STOP
Too many retries => STOP
Too many retries => STOP
Too many retries => STOP
Too many retries => STOP
Too many retries => STOP
Too many retries => STOP
Too many retries => STOP
Too many retries => STOP
Too many retries => STOP
Too many retries => STOP
Too many retries => STOP
Too many retries => STOP
Too many retries => STOP
Too many retries => STOP
Too many retries => STOP
Too many retries => STOP
Too many retries => STOP
Too many retries => STOP
Too many retries => STOP
Too many retries => STOP
Too many retries => STOP
Too many retries => STOP
Too many retries => STOP
Too many retries => STOP
Too many retries => STOP
Too many retries => STOP
Too many retries => STOP
Too many retries => STOP
Too many retries => STOP
Too many retries => STOP
Too many retries => STOP
Too many retries => STOP
Too many retries => STOP
Too many retries => STOP
Too many retries => STOP
Too many retries => STOP
Too many retries => STOP
Too many retries => STOP
Too many retries => STOP
Too many retries => STOP
Too many retries => STOP
Too many retries => STOP
Too many retries => STOP
Too many retries => STOP
Too many retries => STOP
Too many retries => STOP
Too many retries => STOP
Too many retries => STOP
Too many retries => STOP
Too many retries => STOP
Too many retries => STOP
Too many retries => STOP
Too many retries => STOP
Too many retries => STOP
Too many retries => STOP
Too many retries => STOP
Too many retries => STOP
Too many retries => STOP
Too many retries => STOP
Too many retries => STOP
Too many retries => STOP
Too many retries => STOP
Too many retries => STOP
Too many retries => STOP
Too many retries => STOP
Too many retries => STOP
Too many retries => STOP
Too many retries => STOP
Too many retries => STOP
Too many retries => STOP
Too many retries => STOP
Too many retries => STOP
Too many retries => STOP
Too many retries => STOP
Too many retries => STOP
Too many retries => STOP
Too many retries => STOP
Too many retries => STOP
Too many retries => STOP
Too many retries => STOP
Too many retries => STOP
Too many retries => STOP
Too many retries => STOP
Too many retries => STOP
Too many retries => STOP
Too many retries => STOP
Too many retries => STOP
Too many retries => STOP
Too many retries => STOP
Too many retries => STOP
Too many retries => STOP
Too many retries => STOP
Too many retries => STOP
Too many retries => STOP
Too many retries => STOP
Too many retries => STOP
Too many retries => STOP
Too many retries => STOP
Too many retries => STOP
Too many retries => STOP
Too many retries => STOP
Too many retries => STOP
Too many retries => STOP
Too many retries => STOP
Too many retries => STOP
Too many retries => STOP
Too many retries => STOP
Too many retries => STOP
Too many retries => STOP
Too many retries => STOP
Too many retries => STOP
Too many retries => STOP
Too many retries => STOP
Too many retries => STOP
Too many retries => STOP
Too many retries => STOP
Too many retries => STOP
Too many retries => STOP
Too many retries => STOP
Too many retries => STOP
Too many retries => STOP
Too many retries => STOP
Too many retries => STOP
Too many retries => STOP
Too many retries => STOP
Too many retries => STOP
Too many retries => STOP
Too many retries => STOP
Too many retries => STOP
Too many retries => STOP
Too many retries => STOP
Too many retries => STOP
Too many retries => STOP
Too many retries => STOP
Too many retries => STOP
Too many retries => STOP
Too many retries => STOP
Too many retries => STOP
Too many retries => STOP
Too many retries => STOP
Too many retries => STOP
Too many retries => STOP
Too many retries => STOP
Too many retries => STOP
Too many retries => STOP
Too many retries => STOP
Too many retries => STOP
Too many retries => STOP
Too many retries => STOP
Too many retries => STOP
Too many retries => STOP
Too many retries => STOP
Too many retries => STOP
Too many retries => STOP
Too many retries => STOP
Too many retries => STOP
Too many retries => STOP
Too many retries => STOP
Too many retries => STOP
Too many retries => STOP
Too many retries => STOP
Too many retries => STOP
Too many retries => STOP
Too many retries => STOP
Too many retries => STOP
Too many retries => STOP
Too many retries => STOP
Too many retries => STOP
Too many retries => STOP
Too many retries => STOP
Too many retries => STOP
Too many retries => STOP
Too many retries => STOP
Too many retries => STOP
Too many retries => STOP
Too many retries => STOP
Too many retries => STOP
Too many retries => STOP
Too many retries => STOP
Too many retries => STOP
Too many retries => STOP
Too many retries => STOP
Too many retries => STOP
Too many retries => STOP
Too many retries => STOP
Too many retries => STOP
Too many retries => STOP
Too many retries => STOP
Too many retries => STOP
Too many retries => STOP
Too many retries => STOP
Too many retries => STOP
Too many retries => STOP
Too many retries => STOP
Too many retries => STOP
Too many retries => STOP
Too many retries => STOP
Too many retries => STOP
Too many retries => STOP
Too many retries => STOP
Too many retries => STOP
Too many retries => STOP
Too many retries => STOP
Too many retries => STOP
Too many retries => STOP
Too many retries => STOP
Too many retries => STOP
Too many retries => STOP
Too many retries => STOP
Too many retries => STOP
Too many retries => STOP
Too many retries => STOP
Too many retries => STOP
Too many retries => STOP
Too many retries => STOP
Too many retries => STOP
Too many retries => STOP
Too many retries => STOP
Too many retries => STOP
Too many retries => STOP
Too many retries => STOP
Too many retries => STOP
Too many retries => STOP
Too many retries => STOP
Too many retries => STOP
Too many retries => STOP
Too many retries => STOP
Too many retries => STOP
Too many retries => STOP
Too many retries => STOP
Too many retries => STOP
Too many retries => STOP
Too many retries => STOP
Too many retries => STOP
Too many retries => STOP
Too many retries => STOP
Too many retries => STOP
Too many retries => STOP
Too many retries => STOP
Too many retries => STOP
Too many retries => STOP
Too many retries => STOP
Too many retries => STOP
Too many retries => STOP
Too many retries => STOP
Too many retries => STOP
Too many retries => STOP
Too many retries => STOP
Too many retries => STOP
Too many retries => STOP
Too many retries => STOP
Too many retries => STOP
Too many retries => STOP
Too many retries => STOP
Too many retries => STOP
Too many retries => STOP
Too many retries => STOP
Too many retries => STOP
Too many retries => STOP
Too many retries => STOP
Too many retries => STOP
Too many retries => STOP
Too many retries => STOP
Too many retries => STOP
Too many retries => STOP
Too many retries => STOP
Too many retries => STOP
Too many retries => STOP
Too many retries => STOP
Too many retries => STOP
Too many retries => STOP
Too many retries => STOP
Too many retries => STOP
Too many retries => STOP
Too many retries => STOP
Too many retries => STOP
Too many retries => STOP
Too many retries => STOP
Too many retries => STOP
Too many retries => STOP
Too many retries => STOP
Too many retries => STOP
Too many retries => STOP
Too many retries => STOP
Too many retries => STOP
Too many retries => STOP
Too many retries => STOP
Too many retries => STOP
Too many retries => STOP
Too many retries => STOP
Too many retries => STOP
Too many retries => STOP
Too many retries => STOP
Too many retries => STOP
Too many retries => STOP
Too many retries => STOP
Too many retries => STOP
Too many retries => STOP
Too many retries => STOP
Too many retries => STOP
Too many retries => STOP
Too many retries => STOP
Too many retries => STOP
Too many retries => STOP
Too many retries => STOP
Too many retries => STOP
Too many retries => STOP
Too many retries => STOP
Too many retries => STOP
Too many retries => STOP
Too many retries => STOP
Too many retries => STOP
Too many retries => STOP
Too many retries => STOP
Too many retries => STOP
Too many retries => STOP
Too many retries => STOP
Too many retries => STOP
Too many retries => STOP
Too many retries => STOP
Too many retries => STOP
Too many retries => STOP
Too many retries => STOP
Too many retries => STOP
Too many retries => STOP
Too many retries => STOP
Too many retries => STOP
Too many retries => STOP
Too many retries => STOP
Too many retries => STOP
Too many retries => STOP
Too many retries => STOP
Too many retries => STOP
Too many retries => STOP
Too many retries => STOP
Too many retries => STOP
Too many retries => STOP
Too many retries => STOP
Too many retries => STOP
Too many retries => STOP
Too many retries => STOP
Too many retries => STOP
Too many retries => STOP
Too many retries => STOP
Too many retries => STOP
Too many retries => STOP
Too many retries => STOP
Too many retries => STOP
Too many retries => STOP
Too many retries => STOP
Too many retries => STOP
Too many retries => STOP
Too many retries => STOP
Too many retries => STOP
Too many retries => STOP
Too many retries => STOP
Too many retries => STOP
Too many retries => STOP
Too many retries => STOP
Too many retries => STOP
Too many retries => STOP
Too many retries => STOP
Too many retries => STOP
Too many retries => STOP
Too many retries => STOP
Too many retries => STOP
Too many retries => STOP
Too many retries => STOP
Too many retries => STOP
Too many retries => STOP
Too many retries => STOP
Too many retries => STOP
Too many retries => STOP
Too many retries => STOP
Too many retries => STOP
Too many retries => STOP
Too many retries => STOP
Too many retries => STOP
Too many retries => STOP
Too many retries => STOP
Too many retries => STOP
Too many retries => STOP
Too many retries => STOP
Too many retries => STOP
Too many retries => STOP
Too many retries => STOP
Too many retries => STOP
Too many retries => STOP
Too many retries => STOP
Too many retries => STOP
Too many retries => STOP
Too many retries => STOP
Too many retries => STOP
Too many retries => STOP
Too many retries => STOP
Too many retries => STOP
Too many retries => STOP
Too many retries => STOP
Too many retries => STOP
Too many retries => STOP
Too many retries => STOP
Too many retries => STOP
Too many retries => STOP
Too many retries => STOP
Too many retries => STOP
Too many retries => STOP
Too many retries => STOP
Too many retries => STOP
Too many retries => STOP
Too many retries => STOP
Too many retries => STOP
Too many retries => STOP
Too many retries => STOP
Too many retries => STOP
Too many retries => STOP
Too many retries => STOP
Too many retries => STOP
Too many retries => STOP
Too many retries => STOP
Too many retries => STOP
Too many retries => STOP
Too many retries => STOP
Too many retries => STOP
Too many retries => STOP
Too many retries => STOP
Too many retries => STOP
Too many retries => STOP
Too many retries => STOP
Too many retries => STOP
Too many retries => STOP
Too many retries => STOP
Too many retries => STOP
Too many retries => STOP
Too many retries => STOP
Too many retries => STOP
Too many retries => STOP
Too many retries => STOP
Too many retries => STOP
Too many retries => STOP
Too many retries => STOP
Too many retries => STOP
Too many retries => STOP
Too many retries => STOP
Too many retries => STOP
Too many retries => STOP
Too many retries => STOP
Too many retries => STOP
Too many retries => STOP
Too many retries => STOP
Too many retries => STOP
Too many retries => STOP
Too many retries => STOP
Too many retries => STOP
Too many retries => STOP
Too many retries => STOP
Too many retries => STOP
Too many retries => STOP
Too many retries => STOP
Too many retries => STOP
Too many retries => STOP
Too many retries => STOP
Too many retries => STOP
Too many retries => STOP
Too many retries => STOP
Too many retries => STOP
Too many retries => STOP
Too many retries => STOP
Too many retries => STOP
Too many retries => STOP
Too many retries => STOP
Too many retries => STOP
Too many retries => STOP
Too many retries => STOP
Too many retries => STOP
Too many retries => STOP
Too many retries => STOP
Too many retries => STOP
Too many retries => STOP
Too many retries => STOP
Too many retries => STOP
Too many retries => STOP
Too many retries => STOP
Too many retries => STOP
Too many retries => STOP
Too many retries => STOP
Too many retries => STOP
Too many retries => STOP
Too many retries => STOP
Too many retries => STOP
Too many retries => STOP
Too many retries => STOP
Too many retries => STOP
Too many retries => STOP
Too many retries => STOP
Too many retries => STOP
Too many retries => STOP
Too many retries => STOP
Too many retries => STOP
Too many retries => STOP
Too many retries => STOP
Too many retries => STOP
Too many retries => STOP
Too many retries => STOP
Too many retries => STOP
Too many retries => STOP
Too many retries => STOP
Too many retries => STOP
Too many retries => STOP
Too many retries => STOP
Too many retries => STOP
Too many retries => STOP
Too many retries => STOP
Too many retries => STOP
Too many retries => STOP
Too many retries => STOP
Too many retries => STOP
Too many retries => STOP
Too many retries => STOP
Too many retries => STOP
Too many retries => STOP
Too many retries => STOP
Too many retries => STOP
Too many retries => STOP
Too many retries => STOP
Too many retries => STOP
Too many retries => STOP
Too many retries => STOP
Too many retries => STOP
Too many retries => STOP
Too many retries => STOP
Too many retries => STOP
Too many retries => STOP
Too many retries => STOP
Too many retries => STOP
Too many retries => STOP
Too many retries => STOP
Too many retries => STOP
Too many retries => STOP
Too many retries => STOP
Too many retries => STOP
Too many retries => STOP
Too many retries => STOP
Too many retries => STOP
Too many retries => STOP
Too many retries => STOP
Too many retries => STOP
Too many retries => STOP
Too many retries => STOP
Too many retries => STOP
Too many retries => STOP
Too many retries => STOP
Too many retries => STOP
Too many retries => STOP
Too many retries => STOP
Too many retries => STOP
Too many retries => STOP
Too many retries => STOP
Too many retries => STOP
Too many retries => STOP
Too many retries => STOP
Too many retries => STOP
Too many retries => STOP
Too many retries => STOP
Too many retries => STOP
Too many retries => STOP
Too many retries => STOP
Too many retries => STOP
Too many retries => STOP
Too many retries => STOP
Too many retries => STOP
Too many retries => STOP
Too many retries => STOP
Too many retries => STOP
Too many retries => STOP
Too many retries => STOP
Too many retries => STOP
Too many retries => STOP
Too many retries => STOP
Too many retries => STOP
Too many retries => STOP
Too many retries => STOP
Too many retries => STOP
Too many retries => STOP
Too many retries => STOP
Too many retries => STOP
Too many retries => STOP
Too many retries => STOP
Too many retries => STOP
Too many retries => STOP
Too many retries => STOP
Too many retries => STOP
Too many retries => STOP
Too many retries => STOP
Too many retries => STOP
Too many retries => STOP
Too many retries => STOP
Too many retries => STOP
Too many retries => STOP
Too many retries => STOP
Too many retries => STOP
Too many retries => STOP
Too many retries => STOP
Too many retries => STOP
Too many retries => STOP
Too many retries => STOP
Too many retries => STOP
Too many retries => STOP
Too many retries => STOP
Too many retries => STOP
Too many retries => STOP
Too many retries => STOP
Too many retries => STOP
Too many retries => STOP
Too many retries => STOP
Too many retries => STOP
Too many retries => STOP
Too many retries => STOP
Too many retries => STOP
Too many retries => STOP
Too many retries => STOP
Too many retries => STOP
Too many retries => STOP
Too many retries => STOP
Too many retries => STOP
Too many retries => STOP
Too many retries => STOP
Too many retries => STOP
Too many retries => STOP
Too many retries => STOP
Too many retries => STOP
Too many retries => STOP
Too many retries => STOP
Too many retries => STOP
Too many retries => STOP
Too many retries => STOP
Too many retries => STOP
Too many retries => STOP
Too many retries => STOP
Too many retries => STOP
Too many retries => STOP
Too many retries => STOP
Too many retries => STOP
Too many retries => STOP
Too many retries => STOP
Too many retries => STOP
Too many retries => STOP
Too many retries => STOP
Too many retries => STOP
Too many retries => STOP
Too many retries => STOP
Too many retries => STOP
Too many retries => STOP
Too many retries => STOP
Too many retries => STOP
Too many retries => STOP
Too many retries => STOP
Too many retries => STOP
Too many retries => STOP
Too many retries => STOP
Too many retries => STOP
Too many retries => STOP
Too many retries => STOP
Too many retries => STOP
Too many retries => STOP
Too many retries => STOP
Too many retries => STOP
Too many retries => STOP
Too many retries => STOP
Too many retries => STOP
Too many retries => STOP
Too many retries => STOP
Too many retries => STOP
Too many retries => STOP
Too many retries => STOP
Too many retries => STOP
Too many retries => STOP
Too many retries => STOP
Too many retries => STOP
Too many retries => STOP
Too many retries => STOP
Too many retries => STOP
Too many retries => STOP
Too many retries => STOP
Too many retries => STOP
Too many retries => STOP
Too many retries => STOP
Too many retries => STOP
Too many retries => STOP
Too many retries => STOP
Too many retries => STOP
Too many retries => STOP
Too many retries => STOP
Too many retries => STOP
Too many retries => STOP
Too many retries => STOP
Too many retries => STOP
Too many retries => STOP
Too many retries => STOP
Too many retries => STOP
Too many retries => STOP
Too many retries => STOP
Too many retries => STOP
Too many retries => STOP
Too many retries => STOP
Too many retries => STOP
Too many retries => STOP
Too many retries => STOP
Too many retries => STOP
Too many retries => STOP
Too many retries => STOP
Too many retries => STOP
Too many retries => STOP
Too many retries => STOP
Too many retries => STOP
Too many retries => STOP
Too many retries => STOP
Too many retries => STOP
Too many retries => STOP
Too many retries => STOP
Too many retries => STOP
Too many retries => STOP
Too many retries => STOP
Too many retries => STOP
Too many retries => STOP
Too many retries => STOP
Too many retries => STOP
Too many retries => STOP
Too many retries => STOP
Too many retries => STOP
Too many retries => STOP
Too many retries => STOP
Too many retries => STOP
Too many retries => STOP
Too many retries => STOP
Too many retries => STOP
Too many retries => STOP
Too many retries => STOP
Too many retries => STOP
Too many retries => STOP
Too many retries => STOP
Too many retries => STOP
Too many retries => STOP
Too many retries => STOP
Too many retries => STOP
Too many retries => STOP
Too many retries => STOP
Too many retries => STOP
Too many retries => STOP
Too many retries => STOP
Too many retries => STOP
Too many retries => STOP
Too many retries => STOP
Too many retries => STOP
Too many retries => STOP
Too many retries => STOP
Too many retries => STOP
Too many retries => STOP
Too many retries => STOP
Too many retries => STOP
Too many retries => STOP
Too many retries => STOP
Too many retries => STOP
Too many retries => STOP
Too many retries => STOP
Too many retries => STOP
Too many retries => STOP
Too many retries => STOP
Too many retries => STOP
Too many retries => STOP
Too many retries => STOP
Too many retries => STOP
Too many retries => STOP
Too many retries => STOP
Too many retries => STOP
Too many retries => STOP
Too many retries => STOP
Too many retries => STOP
Too many retries => STOP
Too many retries => STOP
Too many retries => STOP
Too many retries => STOP
Too many retries => STOP
Too many retries => STOP
Too many retries => STOP
Too many retries => STOP
Too many retries => STOP
Too many retries => STOP
Too many retries => STOP
Too many retries => STOP
Too many retries => STOP
Too many retries => STOP
Too many retries => STOP
Too many retries => STOP
Too many retries => STOP
Too many retries => STOP
Too many retries => STOP
Too many retries => STOP
Too many retries => STOP
Too many retries => STOP
Too many retries => STOP
Too many retries => STOP
Too many retries => STOP
Too many retries => STOP
Too many retries => STOP
Too many retries => STOP
Too many retries => STOP
Too many retries => STOP
Too many retries => STOP
Too many retries => STOP
Too many retries => STOP
Too many retries => STOP
Too many retries => STOP
Too many retries => STOP
Too many retries => STOP
Too many retries => STOP
Too many retries => STOP
Too many retries => STOP
Too many retries => STOP
Too many retries => STOP
Too many retries => STOP
Too many retries => STOP
Too many retries => STOP
Too many retries => STOP
Too many retries => STOP
Too many retries => STOP
Too many retries => STOP
Too many retries => STOP
Too many retries => STOP
Too many retries => STOP
Too many retries => STOP
Too many retries => STOP
Too many retries => STOP
Too many retries => STOP
Too many retries => STOP
Too many retries => STOP
Too many retries => STOP
Too many retries => STOP
Too many retries => STOP
Too many retries => STOP
Too many retries => STOP
Too many retries => STOP
Too many retries => STOP
Too many retries => STOP
Too many retries => STOP
Too many retries => STOP
Too many retries => STOP
Too many retries => STOP
Too many retries => STOP
Too many retries => STOP
Too many retries => STOP
Too many retries => STOP
Too many retries => STOP
Too many retries => STOP
Too many retries => STOP
Too many retries => STOP
Too many retries => STOP
Too many retries => STOP
Too many retries => STOP
Too many retries => STOP
Too many retries => STOP
Too many retries => STOP
Too many retries => STOP
Too many retries => STOP
Too many retries => STOP
Too many retries => STOP
Too many retries => STOP
Too many retries => STOP
Too many retries => STOP
Too many retries => STOP
Too many retries => STOP
Too many retries => STOP
Too many retries => STOP
Too many retries => STOP
Too many retries => STOP
Too many retries => STOP
Too many retries => STOP
Too many retries => STOP
Too many retries => STOP
Too many retries => STOP
Too many retries => STOP
Too many retries => STOP
Too many retries => STOP
Too many retries => STOP
Too many retries => STOP
Too many retries => STOP
Too many retries => STOP
Too many retries => STOP
Too many retries => STOP
Too many retries => STOP
Too many retries => STOP
Too many retries => STOP
Too many retries => STOP
Too many retries => STOP
Too many retries => STOP
Too many retries => STOP
Too many retries => STOP
Too many retries => STOP
Too many retries => STOP
Too many retries => STOP
Too many retries => STOP
Too many retries => STOP
Too many retries => STOP
Too many retries => STOP
Too many retries => STOP
Too many retries => STOP
Too many retries => STOP
Too many retries => STOP
Too many retries => STOP
Too many retries => STOP
Too many retries => STOP
Too many retries => STOP
Too many retries => STOP
Too many retries => STOP
Too many retries => STOP
Too many retries => STOP
Too many retries => STOP
Too many retries => STOP
Too many retries => STOP
Too many retries => STOP
Too many retries => STOP
Too many retries => STOP
Too many retries => STOP
Too many retries => STOP
Too many retries => STOP
Too many retries => STOP
Too many retries => STOP
Too many retries => STOP
Too many retries => STOP
Too many retries => STOP
Too many retries => STOP
Too many retries => STOP
Too many retries => STOP
Too many retries => STOP
Too many retries => STOP
Too many retries => STOP
Too many retries => STOP
Too many retries => STOP
Too many retries => STOP
Too many retries => STOP
Too many retries => STOP
Too many retries => STOP
Too many retries => STOP
Too many retries => STOP
Too many retries => STOP
Too many retries => STOP
Too many retries => STOP
Too many retries => STOP
Too many retries => STOP
Too many retries => STOP
Too many retries => STOP
Too many retries => STOP
Too many retries => STOP
Too many retries => STOP
Too many retries => STOP
Too many retries => STOP
Too many retries => STOP
Too many retries => STOP
Too many retries => STOP
Too many retries => STOP
Too many retries => STOP
Too many retries => STOP
Too many retries => STOP
Too many retries => STOP
Too many retries => STOP
Too many retries => STOP
Too many retries => STOP
Too many retries => STOP
Too many retries => STOP
Too many retries => STOP
Too many retries => STOP
Too many retries => STOP
Too many retries => STOP
Too many retries => STOP
Too many retries => STOP
Too many retries => STOP
Too many retries => STOP
Too many retries => STOP
Too many retries => STOP
Too many retries => STOP
Too many retries => STOP
Too many retries => STOP
Too many retries => STOP
Too many retries => STOP
Too many retries => STOP
Too many retries => STOP
Too many retries => STOP
Too many retries => STOP
Too many retries => STOP
Too many retries => STOP
Too many retries => STOP
Too many retries => STOP
Too many retries => STOP
Too many retries => STOP
Too many retries => STOP
Too many retries => STOP
Too many retries => STOP
Too many retries => STOP
Too many retries => STOP
Too many retries => STOP
Too many retries => STOP
Too many retries => STOP
Too many retries => STOP
Too many retries => STOP
Too many retries => STOP
Too many retries => STOP
Too many retries => STOP
Too many retries => STOP
Too many retries => STOP
Too many retries => STOP
Too many retries => STOP
Too many retries => STOP
Too many retries => STOP
Too many retries => STOP
Too many retries => STOP
Too many retries => STOP
Too many retries => STOP
Too many retries => STOP
Too many retries => STOP
Too many retries => STOP
Too many retries => STOP
Too many retries => STOP
Too many retries => STOP
Too many retries => STOP
Too many retries => STOP
Too many retries => STOP
Too many retries => STOP
Too many retries => STOP
Too many retries => STOP
Too many retries => STOP
Too many retries => STOP
Too many retries => STOP
Too many retries => STOP
Too many retries => STOP
Too many retries => STOP
Too many retries => STOP
Too many retries => STOP
Too many retries => STOP
Too many retries => STOP
Too many retries => STOP
Too many retries => STOP
Too many retries => STOP
Too many retries => STOP
Too many retries => STOP
Too many retries => STOP
Too many retries => STOP
Too many retries => STOP
Too many retries => STOP
Too many retries => STOP
Too many retries => STOP
Too many retries => STOP
Too many retries => STOP
Too many retries => STOP
Too many retries => STOP
Too many retries => STOP
Too many retries => STOP
Too many retries => STOP
Too many retries => STOP
Too many retries => STOP
Too many retries => STOP
Too many retries => STOP
Too many retries => STOP
Too many retries => STOP
Too many retries => STOP
Too many retries => STOP
Too many retries => STOP
Too many retries => STOP
Too many retries => STOP
Too many retries => STOP
Too many retries => STOP
Too many retries => STOP
Too many retries => STOP
Too many retries => STOP
Too many retries => STOP
Too many retries => STOP
Too many retries => STOP
Too many retries => STOP
Too many retries => STOP
Too many retries => STOP
Too many retries => STOP
Too many retries => STOP
Too many retries => STOP
Too many retries => STOP
Too many retries => STOP
Too many retries => STOP
Too many retries => STOP
Too many retries => STOP
Too many retries => STOP
Too many retries => STOP
Too many retries => STOP
Too many retries => STOP
Too many retries => STOP
Too many retries => STOP
Too many retries => STOP
Too many retries => STOP
Too many retries => STOP
Too many retries => STOP
Too many retries => STOP
Too many retries => STOP
Too many retries => STOP
Too many retries => STOP
Too many retries => STOP
Too many retries => STOP
Too many retries => STOP
Too many retries => STOP
Too many retries => STOP
Too many retries => STOP
Too many retries => STOP
Too many retries => STOP
Too many retries => STOP
Too many retries => STOP
Too many retries => STOP
Too many retries => STOP
Too many retries => STOP
Too many retries => STOP
Too many retries => STOP
Too many retries => STOP
Too many retries => STOP
Too many retries => STOP
Too many retries => STOP
Too many retries => STOP
Too many retries => STOP
Too many retries => STOP
Too many retries => STOP
Too many retries => STOP
Too many retries => STOP
Too many retries => STOP
Too many retries => STOP
Too many retries => STOP
Too many retries => STOP
Too many retries => STOP
Too many retries => STOP
Too many retries => STOP
Too many retries => STOP
Too many retries => STOP
Too many retries => STOP
Too many retries => STOP
Too many retries => STOP
Too many retries => STOP
Too many retries => STOP
Too many retries => STOP
Too many retries => STOP
Too many retries => STOP
Too many retries => STOP
Too many retries => STOP
Too many retries => STOP
Too many retries => STOP
Too many retries => STOP
Too many retries => STOP
Too many retries => STOP
Too many retries => STOP
Too many retries => STOP
Too many retries => STOP
Too many retries => STOP
Too many retries => STOP
Too many retries => STOP
Too many retries => STOP
Too many retries => STOP
Too many retries => STOP
Too many retries => STOP
Too many retries => STOP
Too many retries => STOP
Too many retries => STOP
Too many retries => STOP
Too many retries => STOP
Too many retries => STOP
Too many retries => STOP
Too many retries => STOP
Too many retries => STOP
Too many retries => STOP
Too many retries => STOP
Too many retries => STOP
Too many retries => STOP
Too many retries => STOP
Too many retries => STOP
Too many retries => STOP
Too many retries => STOP
Too many retries => STOP
Too many retries => STOP
Too many retries => STOP
Too many retries => STOP
Too many retries => STOP
Too many retries => STOP
Too many retries => STOP
Too many retries => STOP
Too many retries => STOP
Too many retries => STOP
Too many retries => STOP
Too many retries => STOP
Too many retries => STOP
Too many retries => STOP
Too many retries => STOP
Too many retries => STOP
Too many retries => STOP
Too many retries => STOP
Too many retries => STOP
Too many retries => STOP
Too many retries => STOP
Too many retries => STOP
Too many retries => STOP
Too many retries => STOP
Too many retries => STOP
Too many retries => STOP
Too many retries => STOP
Too many retries => STOP
Too many retries => STOP
Too many retries => STOP
Too many retries => STOP
Too many retries => STOP
Too many retries => STOP
Too many retries => STOP
Too many retries => STOP
Too many retries => STOP
Too many retries => STOP
Too many retries => STOP
Too many retries => STOP
Too many retries => STOP
Too many retries => STOP
Too many retries => STOP
Too many retries => STOP
Too many retries => STOP
Too many retries => STOP
Too many retries => STOP
Too many retries => STOP
Too many retries => STOP
Too many retries => STOP
Too many retries => STOP
Too many retries => STOP
Too many retries => STOP
Too many retries => STOP
Too many retries => STOP
Too many retries => STOP
Too many retries => STOP
Too many retries => STOP
Too many retries => STOP
Too many retries => STOP
Too many retries => STOP
Too many retries => STOP
Too many retries => STOP
Too many retries => STOP
Too many retries =